<?xml version="1.0" encoding="utf-8"?>
<!-- Generator: Adobe Illustrator 22.0.0, SVG Export Plug-In . SVG Version: 6.00 Build 0)  -->
<svg version="1.1" id="Layer_1" xmlns="http://www.w3.org/2000/svg" xmlns:xlink="http://www.w3.org/1999/xlink" x="0px" y="0px"
	 viewBox="0 0 315.2 257.6" style="enable-background:new 0 0 315.2 257.6;" xml:space="preserve">
<style type="text/css">
	.st0{fill:#00CE7E;}
</style>
<g>
	<path class="st0" d="M61.6,96c-18.1,0-32.7,14.7-32.7,32.7s14.7,32.7,32.7,32.7s32.7-14.7,32.7-32.7S79.8,96,61.6,96z M61.6,157.4
		c-15.9,0-28.7-12.9-28.7-28.7S45.8,100,61.6,100s28.7,12.9,28.7,28.7C90.5,144.6,77.6,157.4,61.6,157.4z"/>
	<path class="st0" d="M61.6,106.8c-5.2,0-9.4,4.2-9.4,9.4s4.2,9.4,9.4,9.4c5.2,0,9.4-4.2,9.4-9.4S66.8,106.8,61.6,106.8z
		 M61.6,121.6c-3,0-5.4-2.4-5.4-5.4s2.4-5.4,5.4-5.4c3,0,5.4,2.4,5.4,5.4S64.6,121.6,61.6,121.6z"/>
	<path class="st0" d="M65.7,126.7h-8.1c-6.6,0-12,5.4-12,12v18.1h4v-18.1c0-4.4,3.6-8,8-8h8.1c4.4,0,8,3.6,8,8v18.1h4v-18.1
		C77.7,132.1,72.3,126.7,65.7,126.7z"/>
	<path class="st0" d="M157.6,203.6c-6.5,0-11.7,6.8-11.7,15.2h4c0-3.4,1.1-6.3,2.6-8.3c1.5-2,3.4-2.9,5.1-2.9s3.6,0.9,5.1,2.9
		c1.5,2,2.6,4.9,2.6,8.3h4C169.3,210.4,164.1,203.6,157.6,203.6z"/>
	<path class="st0" d="M143.5,217.6v25.7h28v-25.7H143.5z M167.7,239.3h-20.1v-17.8h20.1V239.3z"/>
	<rect x="156.4" y="228.5" class="st0" width="8.2" height="4"/>
	<path class="st0" d="M156.3,113.2c-9.3,0-16.8,7.5-16.8,16.8s7.5,16.8,16.8,16.8s16.8-7.5,16.8-16.8S165.6,113.2,156.3,113.2z
		 M156.3,142.8c-7.1,0-12.8-5.7-12.8-12.8c0-7.1,5.7-12.8,12.8-12.8c7.1,0,12.8,5.7,12.8,12.8C169.1,137.1,163.4,142.8,156.3,142.8z
		"/>
	<path class="st0" d="M155.6,93.3v1.9h4v-1.9H155.6z M155.6,85.6v3.9h4v-3.9H155.6z M155.6,77.8v3.9h4v-3.9H155.6z M155.6,72v1.9h4
		V72H155.6z"/>
	<path class="st0" d="M155.6,178.3v1.9h4v-1.9H155.6z M155.6,170.5v3.9h4v-3.9H155.6z M155.6,162.8v3.9h4v-3.9H155.6z M155.6,157
		v1.9h4V157H155.6z"/>
	<path class="st0" d="M124.8,128.1h1.9v-4h-1.9V128.1z M117.1,128.1h3.9v-4h-3.9V128.1z M109.3,128.1h3.9v-4h-3.9V128.1z
		 M103.5,128.1h1.9v-4h-1.9V128.1z"/>
	<path class="st0" d="M209.7,128.1h1.9v-4h-1.9V128.1z M202,128.1h3.9v-4H202V128.1z M194.3,128.1h3.9v-4h-3.9V128.1z M188.5,128.1
		h1.9v-4h-1.9V128.1z"/>
	<path class="st0" d="M253.6,96c-18.1,0-32.7,14.7-32.7,32.7s14.7,32.7,32.7,32.7s32.7-14.7,32.7-32.7S271.6,96,253.6,96z
		 M253.6,157.4c-15.9,0-28.7-12.9-28.7-28.7s12.9-28.7,28.7-28.7s28.7,12.9,28.7,28.7S269.4,157.4,253.6,157.4z"/>
	<path class="st0" d="M253.6,106.8c-5.2,0-9.4,4.2-9.4,9.4s4.2,9.4,9.4,9.4c5.2,0,9.4-4.2,9.4-9.4S258.7,106.8,253.6,106.8z
		 M253.6,121.6c-3,0-5.4-2.4-5.4-5.4s2.4-5.4,5.4-5.4c3,0,5.4,2.4,5.4,5.4S256.5,121.6,253.6,121.6z"/>
	<path class="st0" d="M257.6,126.7h-8.1c-6.6,0-12,5.4-12,12v18.1h4v-18.1c0-4.4,3.6-8,8-8h8.1c4.4,0,8,3.6,8,8v18.1h4v-18.1
		C269.5,132.1,264.3,126.7,257.6,126.7z"/>
	<path class="st0" d="M157.6,0c-18.1,0-32.7,14.7-32.7,32.7s14.7,32.7,32.7,32.7s32.7-14.7,32.7-32.7S175.7,0,157.6,0z M157.6,61.6
		c-15.9,0-28.7-12.9-28.7-28.7c0-16,12.9-28.8,28.7-28.8s28.7,12.9,28.7,28.7C186.3,48.7,173.5,61.6,157.6,61.6z"/>
	<path class="st0" d="M157.6,10.9c-5.2,0-9.4,4.2-9.4,9.4s4.2,9.4,9.4,9.4s9.4-4.2,9.4-9.4S162.8,10.9,157.6,10.9z M157.6,25.6
		c-3,0-5.4-2.4-5.4-5.4s2.4-5.4,5.4-5.4s5.4,2.4,5.4,5.4S160.6,25.6,157.6,25.6z"/>
	<path class="st0" d="M161.7,30.7h-8.1c-6.6,0-12,5.4-12,12v18.2h4V42.7c0-4.4,3.6-8,8-8h8.1c4.4,0,8,3.6,8,8v18.2h4V42.7
		C173.7,36.1,168.3,30.7,161.7,30.7z"/>
	<path class="st0" d="M158,192L158,192c-18.1-0.1-32.7,14.6-32.7,32.7c0,18.1,14.7,32.7,32.7,32.7v0.1c18.1,0,32.7-14.7,32.7-32.7
		C190.7,206.6,176.1,192.1,158,192z M158,253.5L158,253.5c-15.9-0.1-28.7-13-28.7-28.8s12.9-28.7,28.7-28.7v0.1
		c15.9,0,28.7,12.9,28.7,28.7C186.7,240.5,173.9,253.4,158,253.5z"/>
</g>
</svg>
