<?xml version="1.0" encoding="utf-8"?>
<!-- Generator: Adobe Illustrator 22.0.0, SVG Export Plug-In . SVG Version: 6.00 Build 0)  -->
<svg version="1.1" id="Layer_1" xmlns="http://www.w3.org/2000/svg" xmlns:xlink="http://www.w3.org/1999/xlink" x="0px" y="0px"
	 viewBox="0 0 312 312" style="enable-background:new 0 0 312 312;" xml:space="preserve">
<style type="text/css">
	.st0{fill:#00CE7E;}
	.st1{fill:#FFFFFF;}
</style>
<circle class="st0" cx="156" cy="156" r="156"/>
<rect x="168.7" y="173.5" class="st1" width="101.7" height="4.2"/>
<rect x="168.7" y="203.6" class="st1" width="101.7" height="4.2"/>
<path class="st1" d="M180.5,152.7v15.8h15.8v-15.8H180.5z M192,164.3h-7.3V157h7.3V164.3z"/>
<rect x="221.9" y="164.3" class="st1" width="9.2" height="4.2"/>
<rect x="235.7" y="164.3" class="st1" width="9.2" height="4.2"/>
<rect x="249.6" y="164.3" class="st1" width="9.2" height="4.2"/>
<rect x="221.9" y="194.3" class="st1" width="9.2" height="4.2"/>
<rect x="235.7" y="194.3" class="st1" width="9.2" height="4.2"/>
<rect x="249.6" y="194.3" class="st1" width="9.2" height="4.2"/>
<rect x="221.9" y="224.4" class="st1" width="9.2" height="4.2"/>
<rect x="235.7" y="224.4" class="st1" width="9.2" height="4.2"/>
<rect x="249.6" y="224.4" class="st1" width="9.2" height="4.2"/>
<path class="st1" d="M180.5,182.8v15.8h15.8v-15.8H180.5z M192,194.3h-7.3V187h7.3V194.3z"/>
<path class="st1" d="M180.5,212.8v15.8h15.8v-15.8H180.5z M192,224.4h-7.3V217h7.3V224.4z"/>
<rect x="30" y="173.5" class="st1" width="101.7" height="4.2"/>
<rect x="30" y="203.6" class="st1" width="101.7" height="4.2"/>
<path class="st1" d="M41.8,152.7v15.8h15.8v-15.8H41.8z M53.4,164.3H46V157h7.3V164.3z"/>
<rect x="83.2" y="164.3" class="st1" width="9.2" height="4.2"/>
<rect x="97.1" y="164.3" class="st1" width="9.2" height="4.2"/>
<rect x="110.9" y="164.3" class="st1" width="9.2" height="4.2"/>
<rect x="83.2" y="194.3" class="st1" width="9.2" height="4.2"/>
<rect x="97.1" y="194.3" class="st1" width="9.2" height="4.2"/>
<rect x="110.9" y="194.3" class="st1" width="9.2" height="4.2"/>
<rect x="83.2" y="224.4" class="st1" width="9.2" height="4.2"/>
<rect x="97.1" y="224.4" class="st1" width="9.2" height="4.2"/>
<rect x="110.9" y="224.4" class="st1" width="9.2" height="4.2"/>
<path class="st1" d="M41.8,182.8v15.8h15.8v-15.8H41.8z M53.4,194.3H46V187h7.3V194.3z"/>
<path class="st1" d="M41.8,212.8v15.8h15.8v-15.8H41.8z M53.4,224.4H46V217h7.3V224.4z"/>
<polygon class="st1" points="159.3,78.8 159.3,48.5 155,48.5 155,78.8 85.7,78.8 85.7,134 89.9,134 89.9,83 224.4,83 224.4,134 
	228.6,134 228.6,78.8 "/>
<path class="st1" d="M157.2,27.7c-6.4,0-11.6,5.2-11.6,11.6s5.2,11.6,11.6,11.6s11.6-5.2,11.6-11.6S163.5,27.7,157.2,27.7z
	 M157.2,46.6c-4.1,0-7.3-3.3-7.3-7.3s3.3-7.3,7.3-7.3s7.3,3.3,7.3,7.3S161.2,46.6,157.2,46.6z"/>
<circle class="st0" cx="86.7" cy="130.6" r="10.4"/>
<path class="st1" d="M86.7,120.2c-5.7,0-10.4,4.7-10.4,10.4v0c0,5.7,4.7,10.4,10.4,10.4c5.7,0,10.4-4.7,10.4-10.4v0
	C97.1,124.8,92.4,120.2,86.7,120.2z M86.7,136.8c-3.4,0-6.2-2.8-6.2-6.2c0-3.4,2.8-6.2,6.2-6.2c3.4,0,6.2,2.8,6.2,6.2
	C92.8,134,90.1,136.8,86.7,136.8z"/>
<circle class="st0" cx="225.3" cy="130.6" r="10.4"/>
<path class="st1" d="M225.3,120.2c-5.7,0-10.4,4.7-10.4,10.4v0c0,5.7,4.7,10.4,10.4,10.4s10.4-4.7,10.4-10.4v0
	C235.7,124.8,231.1,120.2,225.3,120.2z M225.3,136.8c-3.4,0-6.2-2.8-6.2-6.2c0-3.4,2.8-6.2,6.2-6.2c3.4,0,6.2,2.8,6.2,6.2
	C231.5,134,228.7,136.8,225.3,136.8z"/>
<path class="st1" d="M284.5,115.9c-0.4-1.4-1.6-2.4-3.2-2.4h-90c-1.1,0-2.2,0.6-2.8,1.5l-21.4,33.8c-0.3,0.5-0.5,3.7-0.5,3.7v76.3
	c0,5,4,9,9,9h87.8c4.4,0,8-3.1,8.9-7.2l0.1,0l11.6-32.7c0.4-1.3,0.7-2.6,0.7-3.9L284.5,115.9z M191.8,117.7h88.1l-11.7,27.2
	c-1.4-0.9-3-1.4-4.8-1.4h-87.8C175.6,143.5,191.8,117.7,191.8,117.7z M268.3,228.8c0,2.7-2.2,4.8-4.8,4.8h-87.8
	c-2.7,0-4.8-2.2-4.8-4.8v-76.3c0-2.7,2.2-4.8,4.8-4.8h87.8c2.7,0,4.8,2.2,4.8,4.8V228.8z M280,196.5l-7.5,21.2v-65.2
	c0-1.6-0.4-3-1.1-4.3l9.1-21.1V194C280.5,194.9,280.3,195.7,280,196.5z"/>
<path class="st1" d="M146.5,195.6c0,0-0.8-79.9-0.8-80c-0.5-1.2-1.6-2.1-3.1-2.1h-90c-1.1,0-2.2,0.6-2.8,1.5l-21.4,33.8
	c-0.9,1.2-0.5,4.9-0.5,4.9h0v75.1c0,5,4,9,9,9h87.8c4.5,0,8.3-3.3,8.9-7.7l12-30.2C146.2,198.5,146.5,197.1,146.5,195.6z
	 M53.2,117.7h88.1l-11.7,27.2c-1.4-0.9-3-1.4-4.8-1.4H37c-0.1,0-0.1,0-0.2,0L53.2,117.7z M124.8,233.6H37c-2.7,0-4.8-2.2-4.8-4.8
	v-76.3c0-2.7,2.2-4.8,4.8-4.8h87.8c2.7,0,4.8,2.2,4.8,4.8v76.3C129.6,231.5,127.5,233.6,124.8,233.6z M133.8,218.4v-65.9
	c0-1.6-0.4-3-1.1-4.3l9.2-21.4l0.4,68.8c0,1-0.2,1.9-0.5,2.8L133.8,218.4z"/>
<g>
	<path class="st1" d="M153.7,275.2c-28.9,0-55.4-10.3-76.1-27.4l-2.7,3.2c21.4,17.7,48.8,28.4,78.8,28.4c29.9,0,57.4-10.7,78.8-28.4
		l-2.7-3.2C209.1,264.9,182.6,275.2,153.7,275.2z"/>
	<path class="st1" d="M126.7,35.5c-44.2,9.9-79.4,43.4-91.7,86.6l4.1,1.2c11.9-41.7,45.9-74.1,88.6-83.6L126.7,35.5z"/>
	<path class="st1" d="M180.7,35.5l-0.9,4.1c34.9,7.8,64,30.9,79.9,61.9l3.8-1.9C247,67.5,216.9,43.6,180.7,35.5z"/>
</g>
</svg>
